\relax 
\providecommand\hyper@newdestlabel[2]{}
\catcode `"\active 
\providecommand\HyperFirstAtBeginDocument{\AtBeginDocument}
\HyperFirstAtBeginDocument{\ifx\hyper@anchor\@undefined
\global\let\oldcontentsline\contentsline
\gdef\contentsline#1#2#3#4{\oldcontentsline{#1}{#2}{#3}}
\global\let\oldnewlabel\newlabel
\gdef\newlabel#1#2{\newlabelxx{#1}#2}
\gdef\newlabelxx#1#2#3#4#5#6{\oldnewlabel{#1}{{#2}{#3}}}
\AtEndDocument{\ifx\hyper@anchor\@undefined
\let\contentsline\oldcontentsline
\let\newlabel\oldnewlabel
\fi}
\fi}
\global\let\hyper@last\relax 
\gdef\HyperFirstAtBeginDocument#1{#1}
\providecommand\HyField@AuxAddToFields[1]{}
\providecommand\HyField@AuxAddToCoFields[2]{}
\bibstyle{plain}
\babel@aux{polish}{}
\@writefile{toc}{\contentsline {chapter}{\numberline {1}Wst\IeC {\k e}p}{5}{chapter.1}\protected@file@percent }
\@writefile{lof}{\addvspace {10\p@ }}
\@writefile{lot}{\addvspace {10\p@ }}
\@writefile{toc}{\contentsline {section}{\numberline {1.1}Zawarto\IeC {\'s}\IeC {\'c} pracy}{6}{section.1.1}\protected@file@percent }
\citation{imagenet}
\citation{grochowski}
\citation{siecineuronowe}
\citation{VGGNET}
\citation{grochowski}
\@writefile{toc}{\contentsline {chapter}{\numberline {2}Czym jest g\IeC {\l }\IeC {\k e}bokie uczenie?}{8}{chapter.2}\protected@file@percent }
\@writefile{lof}{\addvspace {10\p@ }}
\@writefile{lot}{\addvspace {10\p@ }}
\citation{schematSieci}
\@writefile{lof}{\contentsline {figure}{\numberline {2.1}{\ignorespaces Schemat typowej sieci wielowarstwowej}}{9}{figure.2.1}\protected@file@percent }
\citation{konwolucja}
\@writefile{toc}{\contentsline {section}{\numberline {2.1}Sieci konwolucyjne}{10}{section.2.1}\protected@file@percent }
\citation{schematKonwolucja}
\@writefile{lof}{\contentsline {figure}{\numberline {2.2}{\ignorespaces Przyk\IeC {\l }adowy schemat sieci konwolucyjnej}}{11}{figure.2.2}\protected@file@percent }
\newlabel{siecKonwolucyjna}{{2.2}{11}{Przykładowy schemat sieci konwolucyjnej}{figure.2.2}{}}
\citation{emgucv}
\citation{twarz}
\citation{emgutf}
\@writefile{toc}{\contentsline {chapter}{\numberline {3}U\IeC {\.z}yte technologie i struktura projektu}{12}{chapter.3}\protected@file@percent }
\@writefile{lof}{\addvspace {10\p@ }}
\@writefile{lot}{\addvspace {10\p@ }}
\@writefile{toc}{\contentsline {section}{\numberline {3.1}U\IeC {\.z}yte technologie}{12}{section.3.1}\protected@file@percent }
\citation{keras}
\@writefile{toc}{\contentsline {section}{\numberline {3.2}Struktura projektu}{13}{section.3.2}\protected@file@percent }
\@writefile{toc}{\contentsline {section}{\numberline {3.3}Interfejs graficzny programu HandyNET}{15}{section.3.3}\protected@file@percent }
\@writefile{lof}{\contentsline {figure}{\numberline {3.1}{\ignorespaces Okno programu HandyNET}}{15}{figure.3.1}\protected@file@percent }
\newlabel{interfejs}{{3.1}{15}{Okno programu HandyNET}{figure.3.1}{}}
\@writefile{toc}{\contentsline {chapter}{\numberline {4}Algorytm detekcji d\IeC {\l }oni}{16}{chapter.4}\protected@file@percent }
\@writefile{lof}{\addvspace {10\p@ }}
\@writefile{lot}{\addvspace {10\p@ }}
\@writefile{lof}{\contentsline {figure}{\numberline {4.1}{\ignorespaces Schemat detekcji d\IeC {\l }oni}}{17}{figure.4.1}\protected@file@percent }
\newlabel{diagram}{{4.1}{17}{Schemat detekcji dłoni}{figure.4.1}{}}
\citation{Mat}
\citation{MatImage}
\@writefile{toc}{\contentsline {section}{\numberline {4.1}Przechwycenie obrazu z kamery}{18}{section.4.1}\protected@file@percent }
\@writefile{lof}{\contentsline {figure}{\numberline {4.2}{\ignorespaces Przyk\IeC {\l }ad reprezentacji obrazu za pomoc\IeC {\k a} Mat\cite  {MatImage}}}{18}{figure.4.2}\protected@file@percent }
\@writefile{toc}{\contentsline {section}{\numberline {4.2}Ustawienie t\IeC {\l }a}{18}{section.4.2}\protected@file@percent }
\newlabel{tlo}{{4.1}{19}{Metoda tworzenia maski}{lstlisting.4.1}{}}
\@writefile{lol}{\contentsline {lstlisting}{\numberline {4.1}Metoda tworzenia maski}{19}{lstlisting.4.1}\protected@file@percent }
\newlabel{maska}{{4.2}{20}{Metoda odpowiedzialna za uzyskanie pierwszego planu}{lstlisting.4.2}{}}
\@writefile{lol}{\contentsline {lstlisting}{\numberline {4.2}Metoda odpowiedzialna za uzyskanie pierwszego planu}{20}{lstlisting.4.2}\protected@file@percent }
\@writefile{toc}{\contentsline {section}{\numberline {4.3}Wykrycie twarzy u\IeC {\.z}ytkownika}{20}{section.4.3}\protected@file@percent }
\citation{HSV}
\@writefile{lof}{\contentsline {figure}{\numberline {4.3}{\ignorespaces Sto\IeC {\.z}ek przestrzeni barw HSV\cite  {HSV}}}{21}{figure.4.3}\protected@file@percent }
\newlabel{skin}{{4.3}{22}{Metoda wyznaczania progów koloru skóry}{lstlisting.4.3}{}}
\@writefile{lol}{\contentsline {lstlisting}{\numberline {4.3}Metoda wyznaczania prog\IeC {\'o}w koloru sk\IeC {\'o}ry}{22}{lstlisting.4.3}\protected@file@percent }
\newlabel{removeFace}{{4.4}{22}{Metoda usuwania twarzy z kadru}{lstlisting.4.4}{}}
\@writefile{lol}{\contentsline {lstlisting}{\numberline {4.4}Metoda usuwania twarzy z kadru}{22}{lstlisting.4.4}\protected@file@percent }
\citation{Morfologiczne}
\@writefile{toc}{\contentsline {section}{\numberline {4.4}Segmentacja obrazu wraz z binaryzacj\IeC {\k a}}{23}{section.4.4}\protected@file@percent }
\newlabel{inrange}{{4.5}{23}{Użycie metody InRange()}{lstlisting.4.5}{}}
\@writefile{lol}{\contentsline {lstlisting}{\numberline {4.5}U\IeC {\.z}ycie metody InRange()}{23}{lstlisting.4.5}\protected@file@percent }
\citation{Morfologiczne}
\citation{Opening}
\newlabel{erozja}{{4.4}{24}{Erozja}{section*.9}{}}
\@writefile{lof}{\contentsline {figure}{\numberline {4.4}{\ignorespaces Element strukturalny u\IeC {\.z}ywany w erozji}}{24}{figure.4.4}\protected@file@percent }
\newlabel{dylacja}{{4.4}{24}{Dylatacja}{section*.10}{}}
\@writefile{lof}{\contentsline {figure}{\numberline {4.5}{\ignorespaces Element strukturalny u\IeC {\.z}ywany w dylacji}}{24}{figure.4.5}\protected@file@percent }
\citation{Opening}
\@writefile{lof}{\contentsline {figure}{\numberline {4.6}{\ignorespaces Obraz po zastosowaniu operacji otwarcia i dylatacji}}{25}{figure.4.6}\protected@file@percent }
\newlabel{dylatacja}{{4.6}{25}{Obraz po zastosowaniu operacji otwarcia i dylatacji}{figure.4.6}{}}
\@writefile{toc}{\contentsline {section}{\numberline {4.5}Wykrycie najwi\IeC {\k e}kszego konturu}{25}{section.4.5}\protected@file@percent }
\newlabel{kodKontur}{{4.6}{26}{Znalezienie konturu ręki}{lstlisting.4.6}{}}
\@writefile{lol}{\contentsline {lstlisting}{\numberline {4.6}Znalezienie konturu r\IeC {\k e}ki}{26}{lstlisting.4.6}\protected@file@percent }
\@writefile{lof}{\contentsline {figure}{\numberline {4.7}{\ignorespaces Obraz przedstawia najwi\IeC {\k e}kszy wykryty kontur}}{26}{figure.4.7}\protected@file@percent }
\newlabel{kontur}{{4.7}{26}{Obraz przedstawia największy wykryty kontur}{figure.4.7}{}}
\@writefile{toc}{\contentsline {section}{\numberline {4.6}Utworzenie regionu zainteresowania}{27}{section.4.6}\protected@file@percent }
\@writefile{lof}{\contentsline {figure}{\numberline {4.8}{\ignorespaces Przechwycony obraz zapisywany jest w skali szaro\IeC {\'s}ci}}{27}{figure.4.8}\protected@file@percent }
\@writefile{toc}{\contentsline {section}{\numberline {4.7}Wys\IeC {\l }anie obrazu do klasyfikacji}{27}{section.4.7}\protected@file@percent }
\@writefile{toc}{\contentsline {chapter}{\numberline {5}Rozpoznawanie gest\IeC {\'o}w d\IeC {\l }oni}{28}{chapter.5}\protected@file@percent }
\@writefile{lof}{\addvspace {10\p@ }}
\@writefile{lot}{\addvspace {10\p@ }}
\@writefile{toc}{\contentsline {section}{\numberline {5.1}Zbi\IeC {\'o}r danych}{28}{section.5.1}\protected@file@percent }
\@writefile{lof}{\contentsline {figure}{\numberline {5.1}{\ignorespaces Struktura zebranego zbioru danych}}{28}{figure.5.1}\protected@file@percent }
\newlabel{strukturaKatalogi}{{5.1}{28}{Struktura zebranego zbioru danych}{figure.5.1}{}}
\@writefile{toc}{\contentsline {section}{\numberline {5.2}Model sieci neuronowej}{29}{section.5.2}\protected@file@percent }
\@writefile{toc}{\contentsline {subsection}{\numberline {5.2.1}Architektura}{29}{subsection.5.2.1}\protected@file@percent }
\newlabel{kodSiec}{{5.1}{29}{Architektura sieci neuronowej}{lstlisting.5.1}{}}
\@writefile{lol}{\contentsline {lstlisting}{\numberline {5.1}Architektura sieci neuronowej}{29}{lstlisting.5.1}\protected@file@percent }
\citation{DiveInto}
\citation{wrapper}
\newlabel{funkcjaStraty}{{5.2}{31}{Zdefinowanie funkcji straty oraz algorytmu optymalizacji}{lstlisting.5.2}{}}
\@writefile{lol}{\contentsline {lstlisting}{\numberline {5.2}Zdefinowanie funkcji straty oraz algorytmu optymalizacji}{31}{lstlisting.5.2}\protected@file@percent }
\@writefile{toc}{\contentsline {subsection}{\numberline {5.2.2}Trening modelu}{31}{subsection.5.2.2}\protected@file@percent }
\newlabel{trainingSet}{{5.3}{31}{Ustawienie treningowego zbioru danych}{lstlisting.5.3}{}}
\@writefile{lol}{\contentsline {lstlisting}{\numberline {5.3}Ustawienie treningowego zbioru danych}{31}{lstlisting.5.3}\protected@file@percent }
\@writefile{toc}{\contentsline {section}{\numberline {5.3}Biblioteka umo\IeC {\.z}liwiaj\IeC {\k a}ca rozpoznawanie - ImageClassificationTF}{31}{section.5.3}\protected@file@percent }
\@writefile{lof}{\contentsline {figure}{\numberline {5.2}{\ignorespaces Zrzut przedstawia wycinek grafu wyuczonej sieci. Wykorzystano program Netron}}{32}{figure.5.2}\protected@file@percent }
\newlabel{netron}{{5.2}{32}{Zrzut przedstawia wycinek grafu wyuczonej sieci. Wykorzystano program Netron}{figure.5.2}{}}
\citation{kod}
\newlabel{ustawieniaGrafu}{{5.4}{33}{Załadowanie grafu TF do programu}{lstlisting.5.4}{}}
\@writefile{lol}{\contentsline {lstlisting}{\numberline {5.4}Za\IeC {\l }adowanie grafu TF do programu}{33}{lstlisting.5.4}\protected@file@percent }
\newlabel{nazwyTensor}{{5.5}{33}{Ustawienia nazw Tensora wejściowego oraz wyjściowego dla podanego pliku *.pb}{lstlisting.5.5}{}}
\@writefile{lol}{\contentsline {lstlisting}{\numberline {5.5}Ustawienia nazw Tensora wej\IeC {\'s}ciowego oraz wyj\IeC {\'s}ciowego dla podanego pliku *.pb}{33}{lstlisting.5.5}\protected@file@percent }
\newlabel{MostLikely}{{5.6}{34}{Ustawienia nazw Tensora wejściowego oraz wyjściowego dla podanego pliku *.pb}{lstlisting.5.6}{}}
\@writefile{lol}{\contentsline {lstlisting}{\numberline {5.6}Ustawienia nazw Tensora wej\IeC {\'s}ciowego oraz wyj\IeC {\'s}ciowego dla podanego pliku *.pb}{34}{lstlisting.5.6}\protected@file@percent }
\@writefile{toc}{\contentsline {chapter}{\numberline {6}Testy}{35}{chapter.6}\protected@file@percent }
\@writefile{lof}{\addvspace {10\p@ }}
\@writefile{lot}{\addvspace {10\p@ }}
\@writefile{toc}{\contentsline {section}{\numberline {6.1}Algorytm detekcji d\IeC {\l }oni}{35}{section.6.1}\protected@file@percent }
\@writefile{toc}{\contentsline {section}{\numberline {6.2}Sie\IeC {\'c} neuronowa}{36}{section.6.2}\protected@file@percent }
\@writefile{lof}{\contentsline {figure}{\numberline {6.1}{\ignorespaces Wykres funkcji straty w czasie treningu oraz dla zbioru testowego uruchamianego po ka\IeC {\.z}dej ,,epoce''}}{37}{figure.6.1}\protected@file@percent }
\newlabel{ModelLoss}{{6.1}{37}{Wykres funkcji straty w czasie treningu oraz dla zbioru testowego uruchamianego po każdej ,,epoce''}{figure.6.1}{}}
\@writefile{lof}{\contentsline {figure}{\numberline {6.2}{\ignorespaces Skuteczno\IeC {\'s}\IeC {\'c} treningu wraz z wynikami skuteczno\IeC {\'s}ci test\IeC {\'o}w}}{37}{figure.6.2}\protected@file@percent }
\newlabel{ModelAccurancy}{{6.2}{37}{Skuteczność treningu wraz z wynikami skuteczności testów}{figure.6.2}{}}
\newlabel{wyniki}{{6.2}{38}{Sieć neuronowa}{figure.6.2}{}}
\@writefile{lot}{\contentsline {table}{\numberline {6.1}{\ignorespaces Wyniki wst\IeC {\k e}pnych test\IeC {\'o}w}}{38}{table.6.1}\protected@file@percent }
\@writefile{toc}{\contentsline {chapter}{\numberline {7}Zako\IeC {\'n}czenie}{39}{chapter.7}\protected@file@percent }
\@writefile{lof}{\addvspace {10\p@ }}
\@writefile{lot}{\addvspace {10\p@ }}
\bibcite{imagenet}{1}
\bibcite{siecineuronowe}{2}
\bibcite{VGGNET}{3}
\bibcite{schematSieci}{4}
\bibcite{grochowski}{5}
\bibcite{deeplearning}{6}
\bibcite{konwolucja}{7}
\bibcite{schematKonwolucja}{8}
\bibcite{emgucv}{9}
\bibcite{emgutf}{10}
\bibcite{twarz}{11}
\bibcite{keras}{12}
\bibcite{Mat}{13}
\bibcite{MatImage}{14}
\bibcite{HSV}{15}
\bibcite{Morfologiczne}{16}
\bibcite{Opening}{17}
\bibcite{DiveInto}{18}
\bibcite{kod}{19}
\bibcite{wrapper}{20}
